Arq/ArqI/Guia09/Guia_0906.vcd
$date
	Fri Apr 12 14:10:12 2024
$end
$version
	Icarus Verilog
$end
$timescale
	1s
$end
$scope module Guia_0905 $end
$var wire 1 ! clock $end
$upscope $end
$scope module Guia_0905 $end
$var wire 1 " p1 $end
$upscope $end
$enddefinitions $end
#0
$dumpvars
x"
0!
$end
#12
1!
#24
1"
0!
#27
0"
#30
1"
#33
0"
#36
1"
1!
#48
0!
#51
0"
#54
1"
#57
0"
#60
1"
1!
#72
0!
#75
0"
#78
1"
#81
0"
#84
1"
1!
#96
0!
#99
0"
#102
1"
#105
0"
#108
1"
1!
#120
0!
#123
0"
#126
1"
#129
0"
#132
1"
1!
#144
0!
#147
0"
#150
1"
#153
0"
#156
1"
1!
#168
0!
#171
0"
#174
1"
#177
0"
#180
1"
1!
#192
0!
#195
0"
#198
1"
#201
0"
#204
1"
1!
#216
0!
#219
0"
#222
1"
#225
0"
#228
1"
1!
